…
### getting more information on the SIC codes

a .csv file of information on the SIC codes can be downloaded at this
link:
<https://www.gov.uk/government/publications/standard-industrial-classification-of-economic-activities-sic>

``` r
sic_codes = read_csv("sic_codes.csv", col_types = cols()) |>
  janitor::clean_names()

sic_codes
```

    ## # A tibble: 731 x 2
    ##    sic_code description                                                     
    ##    <chr>    <chr>                                                           
    ##  1 01110    Growing of cereals (except rice), leguminous crops and oil seeds
    ##  2 01120    Growing of rice                                                 
    ##  3 01130    Growing of vegetables and melons, roots and tubers              
    ##  4 01140    Growing of sugar cane                                           
    ##  5 01150    Growing of tobacco                                              
    ##  6 01160    Growing of fibre crops                                          
    ##  7 01190    Growing of other non-perennial crops                            
    ##  8 01210    Growing of grapes                                               
    ##  9 01220    Growing of tropical and subtropical fruits                      
    ## 10 01230    Growing of citrus fruits                                        
    ## # ... with 721 more rows

### joining SIC codes with original data

``` r
df_joined = df_raw |>
  select(employer_name, diff_median_hourly_percent, sic_codes) |>
  separate_rows(sic_codes, sep = ":") |>
  left_join(sic_codes, by = c("sic_codes" = "sic_code"))

df_joined
```

    ## # A tibble: 71,943 x 4
    ##    employer_name                      diff_median_hourly_~ sic_codes description
    ##    <chr>                                             <dbl> <chr>     <chr>      
    ##  1 Bryanston School, Incorporated                     28.2 85310     General se~
    ##  2 RED BAND CHEMICAL COMPANY, LIMITED                 -2.7 47730     Dispensing~
    ##  3 123 EMPLOYEES LTD                                  36   78300     Human reso~
    ##  4 1610 LIMITED                                      -34   93110     Operation ~
    ##  5 1879 EVENTS MANAGEMENT LIMITED                      8.1 56210     Event cate~
    ##  6 1879 EVENTS MANAGEMENT LIMITED                      8.1 70229     Management~
    ##  7 1LIFE MANAGEMENT SOLUTIONS LIMITED                  2.8 93110     Operation ~
    ##  8 1LIFE MANAGEMENT SOLUTIONS LIMITED                  2.8 93130     Fitness fa~
    ##  9 1LIFE MANAGEMENT SOLUTIONS LIMITED                  2.8 93290     Other amus~
    ## 10 1ST HOME CARE LTD.                                  0   86900     Other huma~
    ## # ... with 71,933 more rows

### tokenizing the code descriptions

``` r
df_token = df_joined |>
  unnest_tokens(word, description) |>
  anti_join(get_stopwords(), by = "word") |>
  na.omit()

df_token
```

    ## # A tibble: 249,545 x 4
    ##    employer_name                      diff_median_hourly_percent sic_codes word 
    ##    <chr>                                                   <dbl> <chr>     <chr>
    ##  1 Bryanston School, Incorporated                           28.2 85310     gene~
    ##  2 Bryanston School, Incorporated                           28.2 85310     seco~
    ##  3 Bryanston School, Incorporated                           28.2 85310     educ~
    ##  4 RED BAND CHEMICAL COMPANY, LIMITED                       -2.7 47730     disp~
    ##  5 RED BAND CHEMICAL COMPANY, LIMITED                       -2.7 47730     chem~
    ##  6 RED BAND CHEMICAL COMPANY, LIMITED                       -2.7 47730     spec~
    ##  7 RED BAND CHEMICAL COMPANY, LIMITED                       -2.7 47730     stor~
    ##  8 123 EMPLOYEES LTD                                        36   78300     human
    ##  9 123 EMPLOYEES LTD                                        36   78300     reso~
    ## 10 123 EMPLOYEES LTD                                        36   78300     prov~
    ## # ... with 249,535 more rows
…
``` r
top_words = df_token |>
  count(word) |>
  filter(!word %in% c("activities", "n.e.c", "general", "non")) |>
  slice_max(n, n = 40) |>
  pull(word)

df = df_token |>
  filter(word %in% top_words) |>
  transmute(diff_wage = diff_median_hourly_percent / 100, word)

df
```

    ## # A tibble: 94,381 x 2
    ##    diff_wage word       
    ##        <dbl> <chr>      
    ##  1     0.282 secondary  
    ##  2     0.282 education  
    ##  3    -0.027 specialised
    ##  4    -0.027 stores     
    ##  5     0.36  human      
    ##  6     0.36  management 
    ##  7     0.36  human      
    ##  8    -0.34  facilities 
    ##  9     0.081 management 
    ## 10     0.081 management 
    ## # ... with 94,371 more rows
…
<img src="pay_gap_files/figure-gfm/unnamed-chunk-11-1.png" style="display: block; margin: auto;" />

### fitting many models

``` r
paygap_intervals = reg_intervals(diff_wage ~ word, data = df)

paygap_intervals
```

    ## # A tibble: 39 x 6
    ##    term                .lower .estimate    .upper .alpha .method  
    ##    <chr>                <dbl>     <dbl>     <dbl>  <dbl> <chr>    
    ##  1 wordadministration  0.0216   0.0279   0.0345     0.05 student-t
    ##  2 wordagency          0.0258   0.0343   0.0448     0.05 student-t
    ##  3 wordbusiness        0.113    0.120    0.128      0.05 student-t
    ##  4 wordcare           -0.0113  -0.00617 -0.000741   0.05 student-t
    ##  5 wordconstruction    0.165    0.173    0.182      0.05 student-t
    ##  6 wordeducation       0.208    0.214    0.220      0.05 student-t
    ##  7 wordemployment      0.0182   0.0253   0.0339     0.05 student-t
    ##  8 wordequipment       0.117    0.126    0.135      0.05 student-t
    ##  9 wordfacilities      0.0178   0.0242   0.0321     0.05 student-t
    ## 10 wordfood            0.0195   0.0259   0.0335     0.05 student-t
    ## # ... with 29 more rows
…
